<?xml version="1.0" encoding="utf-8"?>
<!-- Generator: Adobe Illustrator 26.0.1, SVG Export Plug-In . SVG Version: 6.00 Build 0)  -->
<svg version="1.1" id="Capa_1" xmlns="http://www.w3.org/2000/svg" xmlns:xlink="http://www.w3.org/1999/xlink" x="0px" y="0px"
	 viewBox="0 0 10 6" style="enable-background:new 0 0 10 6;" xml:space="preserve">
<style type="text/css">
	.st0{fill-rule:evenodd;clip-rule:evenodd;fill:#34E7E4;}
</style>
<g id="v3">
	<g id="CAR1_2_1" transform="translate(-1339.000000, -393.000000)">
		<g id="AUTOS-DESTACADOS" transform="translate(-5.000000, 356.000000)">
			<g id="Group-22" transform="translate(95.000000, 20.000000)">
				<g id="Group-2" transform="translate(1104.000000, 6.000000)">
					<polygon id="Fill-1" class="st0" points="155,11 145,11 150,16.5 					"/>
				</g>
			</g>
		</g>
	</g>
</g>
</svg>
