<svg width="79" height="40" viewBox="0 0 79 40" fill="none" xmlns="http://www.w3.org/2000/svg">
<path fill-rule="evenodd" clip-rule="evenodd" d="M23 15C24.6567 15 26 13.4328 26 11.5C26 9.56723 24.6567 8 23 8C21.3433 8 20 9.56723 20 11.5C20 13.4328 21.3433 15 23 15Z" fill="#BABECA"/>
<path fill-rule="evenodd" clip-rule="evenodd" d="M32 15C33.6567 15 35 13.4328 35 11.5C35 9.56723 33.6567 8 32 8C30.3433 8 29 9.56723 29 11.5C29 13.4328 30.3433 15 32 15Z" fill="#BABECA"/>
<path fill-rule="evenodd" clip-rule="evenodd" d="M41 15C42.6567 15 44 13.4328 44 11.5C44 9.56723 42.6567 8 41 8C39.3433 8 38 9.56723 38 11.5C38 13.4328 39.3433 15 41 15Z" fill="#BABECA"/>
<path fill-rule="evenodd" clip-rule="evenodd" d="M51 15C52.6567 15 54 13.4328 54 11.5C54 9.56723 52.6567 8 51 8C49.3433 8 48 9.56723 48 11.5C48 13.4328 49.3433 15 51 15Z" fill="#BABECA"/>
<path fill-rule="evenodd" clip-rule="evenodd" d="M23 32C24.6567 32 26 30.4328 26 28.5C26 26.5672 24.6567 25 23 25C21.3433 25 20 26.5672 20 28.5C20 30.4328 21.3433 32 23 32Z" fill="#BABECA"/>
<path fill-rule="evenodd" clip-rule="evenodd" d="M32 25C30.3433 25 29 26.5672 29 28.5C29 30.4328 30.3433 32 32 32C33.6567 32 35 30.4328 35 28.5C35 26.5672 33.6567 25 32 25Z" fill="#BABECA"/>
<path fill-rule="evenodd" clip-rule="evenodd" d="M41 25C39.3433 25 38 26.5672 38 28.5C38 30.4328 39.3433 32 41 32C42.6567 32 44 30.4328 44 28.5C44 26.5672 42.6567 25 41 25Z" fill="#BABECA"/>
<path fill-rule="evenodd" clip-rule="evenodd" d="M51 25C49.3433 25 48 26.5672 48 28.5C48 30.4328 49.3433 32 51 32C52.6567 32 54 30.4328 54 28.5C54 26.5672 52.6567 25 51 25Z" fill="#BABECA"/>
<path fill-rule="evenodd" clip-rule="evenodd" d="M29 24C30.6567 24 32 22.4328 32 20.5C32 18.5672 30.6567 17 29 17C27.3433 17 26 18.5672 26 20.5C26 22.4328 27.3433 24 29 24Z" fill="#BABECA"/>
<path fill-rule="evenodd" clip-rule="evenodd" d="M38 24C39.6567 24 41 22.4328 41 20.5C41 18.5672 39.6567 17 38 17C36.3433 17 35 18.5672 35 20.5C35 22.4328 36.3433 24 38 24Z" fill="#BABECA"/>
<path fill-rule="evenodd" clip-rule="evenodd" d="M47 24C48.6567 24 50 22.4328 50 20.5C50 18.5672 48.6567 17 47 17C45.3433 17 44 18.5672 44 20.5C44 22.4328 45.3433 24 47 24Z" fill="#BABECA"/>
<mask id="mask0_0:15568" style="mask-type:alpha" maskUnits="userSpaceOnUse" x="0" y="0" width="79" height="40">
<path fill-rule="evenodd" clip-rule="evenodd" d="M0 40H79V0H0V40Z" fill="white"/>
</mask>
<g mask="url(#mask0_0:15568)">
<path fill-rule="evenodd" clip-rule="evenodd" d="M17.4635 34.4474H58.0187V5.55264H17.4635V34.4474ZM78.5141 25.8239L71.2625 21.4315C71.1214 21.3424 70.9671 21.278 70.7933 21.278H62.6537V19.0338H70.3877L76.3473 22.9243C76.8138 23.2292 77.4117 23.052 77.6833 22.5273L78.8677 20.2415C79.1384 19.7179 78.9806 19.0467 78.5141 18.7418L71.2625 14.3494C71.1214 14.2603 70.9671 14.1959 70.7933 14.1959H62.6537V0H12.332V13.206H1.10674C0.495607 13.206 0 13.7633 0 14.4493V17.4449C0 18.132 0.495607 18.6883 1.10674 18.6883H12.332V21.0107H1.10674C0.495607 21.0107 0 21.5671 0 22.2531V25.2497C0 25.9367 0.495607 26.4931 1.10674 26.4931H12.332V40H62.6537V26.1159H70.3877L76.3473 30.0064C76.8138 30.3113 77.4117 30.1332 77.6833 29.6095L78.8677 27.3237C79.1384 26.8 78.9806 26.1288 78.5141 25.8239Z" fill="#BABECA"/>
</g>
</svg>
