<svg width="69" height="49" viewBox="0 0 69 49" fill="none" xmlns="http://www.w3.org/2000/svg">
<path fill-rule="evenodd" clip-rule="evenodd" d="M65.067 42.1355C64.5396 42.6131 63.5161 43.3771 62.3325 43.4079C61.4026 43.4369 60.4867 43.0051 59.5642 42.1355V38.5311C59.5642 37.6142 58.8283 36.8701 57.9214 36.8701H51.9077C51.0009 36.8701 50.2649 37.6142 50.2649 38.5311V45.6785H24.2954L15.7172 37.0063C15.4092 36.6949 14.9919 36.5196 14.5557 36.5196H9.83907V15.9529C9.93436 15.5883 10.1816 15.0933 10.8174 15.0933H14.5943C15.2367 15.0933 15.8207 14.7146 16.0885 14.1241L17.7314 10.4948H42.7866V17.0965C42.7866 18.0134 43.5226 18.7575 44.4294 18.7575H51.8067V22.4708C51.8067 23.3876 52.5427 24.1318 53.4495 24.1318H58.8463C59.754 24.1318 60.4892 23.3876 60.4892 22.4708V18.7575H65.067V42.1355ZM66.7099 15.4355H58.8463C57.9395 15.4355 57.2035 16.1788 57.2035 17.0965V20.8097H55.0924V17.0965C55.0924 16.1788 54.3572 15.4355 53.4495 15.4355H46.0723V8.8338C46.0723 7.91692 45.3371 7.17279 44.4294 7.17279H33.4781V4.02516H41.6546C42.5623 4.02516 43.2975 3.28185 43.2975 2.36414C43.2975 1.44726 42.5623 0.703125 41.6546 0.703125H17.9096C17.0028 0.703125 16.2668 1.44726 16.2668 2.36414C16.2668 3.28185 17.0028 4.02516 17.9096 4.02516H26.0853V7.17279H16.6758C16.0335 7.17279 15.4494 7.5515 15.1825 8.14282L13.5396 11.7713H10.8174C7.94732 11.7713 6.78746 14.2089 6.57554 15.4978C6.56075 15.5883 6.55336 15.6797 6.55336 15.771V24.1127H3.28571V15.2254C3.28571 14.3085 2.55054 13.5644 1.64286 13.5644C0.736 13.5644 0 14.3085 0 15.2254V34.0887C0 35.0056 0.736 35.7498 1.64286 35.7498C2.55054 35.7498 3.28571 35.0056 3.28571 34.0887V26.6042H6.55336V38.1806C6.55336 39.0975 7.28854 39.8417 8.19621 39.8417H13.8756L22.4529 48.5138C22.761 48.8253 23.1791 49.0005 23.6144 49.0005H51.9077C52.8154 49.0005 53.5506 48.2564 53.5506 47.3395V40.1921H56.2785V42.8182C56.2785 43.236 56.4338 43.6388 56.7139 43.9452C58.4496 45.8471 60.3635 46.7764 62.4179 46.7291C65.6658 46.6435 67.8812 43.9925 67.974 43.8796C68.2188 43.5814 68.3527 43.2061 68.3527 42.8182V17.0965C68.3527 16.1788 67.6167 15.4355 66.7099 15.4355Z" fill="#BABECA"/>
<path fill-rule="evenodd" clip-rule="evenodd" d="M22.3045 22.9969C22.7104 22.9969 23.0706 23.1308 23.3842 23.3969L24 22.6671C23.5277 22.2224 22.963 22 22.3045 22C21.652 22 21.1057 22.2397 20.6646 22.7191C20.2236 23.1977 20.0015 23.7879 20 24.4905C20 25.208 20.2213 25.8048 20.6631 26.2817C21.1049 26.7578 21.652 26.9975 22.3045 27C22.9645 27 23.53 26.7776 24 26.3329L23.3842 25.6031C23.0828 25.8676 22.7249 25.9998 22.3106 25.9998C21.8962 25.9998 21.562 25.8634 21.3071 25.5898C21.053 25.3171 20.9248 24.9476 20.9225 24.4831C20.9225 24.0499 21.0492 23.6945 21.3033 23.4168C21.5567 23.139 21.8901 22.9993 22.3045 22.9969Z" fill="#BABECA"/>
<path fill-rule="evenodd" clip-rule="evenodd" d="M28.076 24.0018H25.924V22.0033H25V27H25.924V24.9346H28.076V27L29 26.9967V22H28.076V24.0018Z" fill="#BABECA"/>
<path fill-rule="evenodd" clip-rule="evenodd" d="M30 27H33.9928V26.0666H31.0885V24.9299H33.2708V23.9998H31.0885V22.9334H34V22L30 22.0033V27Z" fill="#BABECA"/>
<path fill-rule="evenodd" clip-rule="evenodd" d="M37.3045 27C37.9645 27 38.53 26.7776 39 26.3328L38.3842 25.6037C38.0828 25.8674 37.7249 26.0005 37.3106 26.0005C36.8962 26.0005 36.562 25.8633 36.3071 25.5896C36.053 25.3168 35.9248 24.9481 35.9225 24.4835C35.9225 24.0503 36.0492 23.6939 36.3033 23.417C36.5567 23.1392 36.8901 22.9987 37.3045 22.9962C37.7104 22.9962 38.0706 23.1301 38.3842 23.3963L39 22.6663C38.5277 22.2224 37.963 22 37.3045 22C36.652 22 36.1057 22.2397 35.6646 22.7184C35.2236 23.1971 35.0015 23.7874 35 24.4901C35 25.2077 35.2213 25.8054 35.6631 26.2816C36.1049 26.7586 36.652 26.9983 37.3045 27Z" fill="#BABECA"/>
<path fill-rule="evenodd" clip-rule="evenodd" d="M40.9526 24.8401L42.7617 27H44L41.7461 24.3334L43.6095 22H42.5397L40.9526 24.0003V22H40V27H40.9526V24.8401Z" fill="#BABECA"/>
<path fill-rule="evenodd" clip-rule="evenodd" d="M19 35H22.9928V34.0666H20.0885V32.9299H22.2708V31.9998H20.0885V30.9334H23V30L19 30.0033V35Z" fill="#BABECA"/>
<path fill-rule="evenodd" clip-rule="evenodd" d="M27.1048 33.1336L24.2977 30H24V35H24.8952V31.9003L27.672 35H28V30H27.1048V33.1336Z" fill="#BABECA"/>
<path fill-rule="evenodd" clip-rule="evenodd" d="M31.3045 30.9969C31.7104 30.9969 32.0706 31.1308 32.3842 31.3969L33 30.6671C32.5284 30.2224 31.963 30 31.3045 30C30.652 30 30.1057 30.2397 29.6646 30.7191C29.2236 31.1977 29.0015 31.7879 29 32.4905C29 33.208 29.2213 33.8048 29.6631 34.2817C30.1049 34.7578 30.652 34.9975 31.3045 35C31.9653 35 32.53 34.7776 33 34.3329V32.0003H31.4617V32.9335L32.0767 32.9302V33.7866C31.8981 33.9287 31.6425 33.9998 31.3106 33.9998C30.8962 33.9998 30.562 33.8634 30.3071 33.5898C30.053 33.3171 29.9248 32.9476 29.9225 32.4831C29.9225 32.0499 30.0492 31.6945 30.3033 31.4168C30.5567 31.139 30.8901 30.9993 31.3045 30.9969Z" fill="#BABECA"/>
<path fill-rule="evenodd" clip-rule="evenodd" d="M34 35H35V30H34V35Z" fill="#BABECA"/>
<path fill-rule="evenodd" clip-rule="evenodd" d="M39.1048 33.1336L36.2977 30H36V35H36.8952V31.9003L39.672 35H40V30H39.1048V33.1336Z" fill="#BABECA"/>
<path fill-rule="evenodd" clip-rule="evenodd" d="M42 35H45.9928V34.0666H43.0885V32.9299H45.2708V31.9998H43.0885V30.9334H46V30L42 30.0033V35Z" fill="#BABECA"/>
</svg>
