<svg width="49" height="61" viewBox="0 0 49 61" fill="none" xmlns="http://www.w3.org/2000/svg">
<mask id="mask0_0:15587" style="mask-type:alpha" maskUnits="userSpaceOnUse" x="0" y="0" width="49" height="61">
<path fill-rule="evenodd" clip-rule="evenodd" d="M0 0H49V61H0V0Z" fill="white"/>
</mask>
<g mask="url(#mask0_0:15587)">
<path fill-rule="evenodd" clip-rule="evenodd" d="M13.9716 2.69184C13.9716 2.05102 14.4879 1.53011 15.1251 1.53011H39.4504C40.0876 1.53011 40.6038 2.05102 40.6038 2.69184L43.6536 14.0453H10.2474L13.9716 2.69184ZM39.2046 45.0447C32.904 44.1563 32.4201 42.7298 32.3868 42.4526C32.1992 40.8745 37.1216 37.7913 41.8382 35.9024C41.9782 35.8458 42.0897 35.7556 42.1849 35.6501H42.9764C43.6965 35.6501 44.2813 35.062 44.2813 34.3358V30.3374H46.8978C47.6188 30.3374 48.2027 29.7493 48.2027 29.0231V15.3596C48.2027 14.6334 47.6188 14.0453 46.8978 14.0453H45.9072L42.404 1.3133C42.404 0.58806 41.8192 0 41.0991 0H13.5801C12.8591 0 12.2753 0.58806 12.2753 1.3133L8.09864 14.0453H6.6966C5.97557 14.0453 5.3917 14.6334 5.3917 15.3596V29.0231C5.3917 29.7493 5.97557 30.3374 6.6966 30.3374H8.88158V33.6096C0.277856 37.4095 -0.0955153 40.5224 0.0130671 41.4271C0.267378 43.5596 2.95051 44.9142 8.45677 45.6912C13.6278 46.4203 16.5995 47.795 16.6119 49.4604C16.6338 52.3518 8.94349 56.7368 1.91707 57.8381C1.39702 57.9196 1.04079 58.4108 1.12175 58.9336C1.19509 59.4075 1.60085 59.7462 2.06184 59.7462C2.11042 59.7462 2.15995 59.7423 2.20948 59.7347C8.88253 58.688 18.553 54.1591 18.5168 49.446C18.4959 46.6074 15.2003 44.7051 8.72156 43.7908C2.42188 42.9025 1.93707 41.476 1.90469 41.1988C1.74086 39.8279 5.43457 37.3222 9.49974 35.4486C9.69976 35.5743 9.93311 35.6501 10.1865 35.6501H13.5659C14.2869 35.6501 14.8708 35.062 14.8708 34.3358V30.3374H38.2922V34.3358C38.2922 34.6687 38.4188 34.969 38.6208 35.2002C30.7409 38.8465 30.3914 41.8031 30.4961 42.6819C30.7504 44.8135 33.4336 46.168 38.9398 46.9451C44.1108 47.6751 47.0826 49.0488 47.0949 50.7142C47.1169 53.6056 39.4266 57.9906 32.4001 59.0919C31.8801 59.1735 31.5239 59.6646 31.6048 60.1884C31.6782 60.6614 32.0839 61 32.5449 61C32.5935 61 32.643 60.9962 32.6925 60.9885C39.3656 59.9419 49.0361 55.4139 48.9999 50.6998C48.9789 47.8612 45.6824 45.9589 39.2046 45.0447Z" fill="#BABECA"/>
</g>
</svg>
